/* XPM */
static char *gwp_italic[] = {
/* width height num_colors chars_per_pixel */
"    20    18        2            1",
/* colors */
". c #333366",
"# c none",
/* pixels */
"####################",
"####################",
"##############.#####",
"#############..#####",
"#############..#####",
"############...#####",
"###########.#..#####",
"##########.##..#####",
"##########.##..#####",
"#########.###..#####",
"########.####..#####",
"########.......#####",
"#######.#####..#####",
"######.######..#####",
"#####.#######..#####",
"###.....###......###",
"####################",
"####################"
};
