/* XPM */
static char *gwp_underline[] = {
/* width height num_colors chars_per_pixel */
"    20    18        3            1",
/* colors */
". c #333366",
"# c none",
"a c #222222",
/* pixels */
"####################",
"#########.##########",
"########...#########",
"########...#########",
"#######.....########",
"#######.#...########",
"######..##...#######",
"######.###...#######",
"#####..####...######",
"#####.#####...######",
"####...........#####",
"####.#######...#####",
"###..########...####",
"##...########....###",
"#.....#####.......##",
"####################",
"#aaaaaaaaaaaaaaaaa##",
"####################"
};
