%!PS-Adobe-2.0
%%Title: unnamed.ps
%%Creator: fig2dev Version 3.2 Patchlevel 0-beta3
%%CreationDate: Sat Apr 11 13:41:47 1998
%%For: alves@twitch.cp.domain.net (Seth Alves)
%%Orientation: Landscape
%%BoundingBox: 42 146 571 646
%%Pages: 1
%%BeginSetup
%%IncludeFeature: *PageSize Letter
%%EndSetup
%%Magnification: 0.7000
%%EndComments
/$F2psDict 200 dict def
$F2psDict begin
$F2psDict /mtrx matrix put
/col-1 {0 setgray} bind def
/col0 {0.000 0.000 0.000 srgb} bind def
/col1 {0.000 0.000 1.000 srgb} bind def
/col2 {0.000 1.000 0.000 srgb} bind def
/col3 {0.000 1.000 1.000 srgb} bind def
/col4 {1.000 0.000 0.000 srgb} bind def
/col5 {1.000 0.000 1.000 srgb} bind def
/col6 {1.000 1.000 0.000 srgb} bind def
/col7 {1.000 1.000 1.000 srgb} bind def
/col8 {0.000 0.000 0.560 srgb} bind def
/col9 {0.000 0.000 0.690 srgb} bind def
/col10 {0.000 0.000 0.820 srgb} bind def
/col11 {0.530 0.810 1.000 srgb} bind def
/col12 {0.000 0.560 0.000 srgb} bind def
/col13 {0.000 0.690 0.000 srgb} bind def
/col14 {0.000 0.820 0.000 srgb} bind def
/col15 {0.000 0.560 0.560 srgb} bind def
/col16 {0.000 0.690 0.690 srgb} bind def
/col17 {0.000 0.820 0.820 srgb} bind def
/col18 {0.560 0.000 0.000 srgb} bind def
/col19 {0.690 0.000 0.000 srgb} bind def
/col20 {0.820 0.000 0.000 srgb} bind def
/col21 {0.560 0.000 0.560 srgb} bind def
/col22 {0.690 0.000 0.690 srgb} bind def
/col23 {0.820 0.000 0.820 srgb} bind def
/col24 {0.500 0.190 0.000 srgb} bind def
/col25 {0.630 0.250 0.000 srgb} bind def
/col26 {0.750 0.380 0.000 srgb} bind def
/col27 {1.000 0.500 0.500 srgb} bind def
/col28 {1.000 0.630 0.630 srgb} bind def
/col29 {1.000 0.750 0.750 srgb} bind def
/col30 {1.000 0.880 0.880 srgb} bind def
/col31 {1.000 0.840 0.000 srgb} bind def

end
save
-10.5 96.0 translate
 90 rotate
1 -1 scale

/cp {closepath} bind def
/ef {eofill} bind def
/gr {grestore} bind def
/gs {gsave} bind def
/sa {save} bind def
/rs {restore} bind def
/l {lineto} bind def
/m {moveto} bind def
/rm {rmoveto} bind def
/n {newpath} bind def
/s {stroke} bind def
/sh {show} bind def
/slc {setlinecap} bind def
/slj {setlinejoin} bind def
/slw {setlinewidth} bind def
/srgb {setrgbcolor} bind def
/rot {rotate} bind def
/sc {scale} bind def
/sd {setdash} bind def
/ff {findfont} bind def
/sf {setfont} bind def
/scf {scalefont} bind def
/sw {stringwidth} bind def
/tr {translate} bind def
/tnt {dup dup currentrgbcolor
  4 -2 roll dup 1 exch sub 3 -1 roll mul add
  4 -2 roll dup 1 exch sub 3 -1 roll mul add
  4 -2 roll dup 1 exch sub 3 -1 roll mul add srgb}
  bind def
/shd {dup dup currentrgbcolor 4 -2 roll mul 4 -2 roll mul
  4 -2 roll mul srgb} bind def
/$F2psBegin {$F2psDict begin /$F2psEnteredState save def} def
/$F2psEnd {$F2psEnteredState restore end} def
%%EndProlog

$F2psBegin
10 setmiterlimit
n -1000 14833 m -1000 -1000 l 14083 -1000 l 14083 14833 l cp clip
 0.04200 0.04200 sc
%%Page: 1 1
/Times-Roman ff 150.00 scf sf
3975 4500 m
gs 1 -1 sc (WPPluginEditVTAble) col0 sh gr
/Times-Roman ff 150.00 scf sf
6900 1770 m
gs 1 -1 sc (WPPluginIOVTable) col0 sh gr
/Times-Roman ff 150.00 scf sf
6675 2025 m
gs 1 -1 sc (plugin_getMimeType) col0 sh gr
/Times-Roman ff 150.00 scf sf
6675 2220 m
gs 1 -1 sc (plugin_getFileExtensions) col0 sh gr
/Times-Roman ff 150.00 scf sf
6675 2415 m
gs 1 -1 sc (pluginWrapper_startLoad) col0 sh gr
/Times-Roman ff 150.00 scf sf
6675 2610 m
gs 1 -1 sc (pluginWrapper_processLoadChunk) col0 sh gr
/Times-Roman ff 150.00 scf sf
6675 2805 m
gs 1 -1 sc (pluginWrapper_endLoad) col0 sh gr
/Times-Roman ff 150.00 scf sf
6675 3000 m
gs 1 -1 sc (pluginWrapper_startSave) col0 sh gr
/Times-Roman ff 150.00 scf sf
6675 3195 m
gs 1 -1 sc (pluginWrapper_processSaveSlab) col0 sh gr
/Times-Roman ff 150.00 scf sf
6675 3390 m
gs 1 -1 sc (pluginWrapper_endSave) col0 sh gr
% Polyline
7.500 slw
n 6600 3900 m 9675 3900 l 9675 5550 l 6600 5550 l cp gs col0 s gr 
/Times-Roman ff 150.00 scf sf
6675 3825 m
gs 1 -1 sc (WPPluginEditVTable) col0 sh gr
/Times-Roman ff 150.00 scf sf
6675 4050 m
gs 1 -1 sc (pluginWrapper_replaceWord) col0 sh gr
/Times-Roman ff 150.00 scf sf
6675 4245 m
gs 1 -1 sc (pluginWrapper_deleteCharacter) col0 sh gr
/Times-Roman ff 150.00 scf sf
6675 4440 m
gs 1 -1 sc (pluginWrapper_stationaryDeleteCharacter) col0 sh gr
/Times-Roman ff 150.00 scf sf
6675 4635 m
gs 1 -1 sc (pluginWrapper_deleteSlab) col0 sh gr
/Times-Roman ff 150.00 scf sf
6675 4830 m
gs 1 -1 sc (pluginWrapper_insertSlab) col0 sh gr
/Times-Roman ff 150.00 scf sf
6675 5025 m
gs 1 -1 sc (pluginWrapper_createFollowingWord) col0 sh gr
/Times-Roman ff 150.00 scf sf
6675 5220 m
gs 1 -1 sc (pluginWrapper_insertCharacter) col0 sh gr
/Times-Roman ff 150.00 scf sf
6675 5415 m
gs 1 -1 sc (pluginWrapper_insertImage) col0 sh gr
% Polyline
30.000 slw
n 1530 6825 m 1425 6825 1425 7095 105 arcto 4 {pop} repeat
  1425 7200 2145 7200 105 arcto 4 {pop} repeat
  2250 7200 2250 6930 105 arcto 4 {pop} repeat
  2250 6825 1530 6825 105 arcto 4 {pop} repeat
 cp gs col0 s gr 
/Times-Roman ff 150.00 scf sf
1575 7050 m
gs 1 -1 sc (WPView) col0 sh gr
% Polyline
7.500 slw
n 3150 6525 m 4875 6525 l 4875 7725 l 3150 7725 l cp gs col0 s gr 
/Times-Roman ff 150.00 scf sf
3225 6675 m
gs 1 -1 sc (replaceWord) col0 sh gr
/Times-Roman ff 150.00 scf sf
3225 6870 m
gs 1 -1 sc (deleteCharacter) col0 sh gr
/Times-Roman ff 150.00 scf sf
3225 7065 m
gs 1 -1 sc (stationaryDeleteCharacter) col0 sh gr
/Times-Roman ff 150.00 scf sf
3225 7260 m
gs 1 -1 sc (deleteSlab) col0 sh gr
/Times-Roman ff 150.00 scf sf
3225 7455 m
gs 1 -1 sc (createFollowingWord) col0 sh gr
/Times-Roman ff 150.00 scf sf
3225 7650 m
gs 1 -1 sc (insertCharacter) col0 sh gr
/Times-Roman ff 150.00 scf sf
3300 6450 m
gs 1 -1 sc (WPDocument methods) col0 sh gr
% Polyline
n 6375 6525 m 8550 6525 l 8550 8325 l 6375 8325 l cp gs col0 s gr 
/Times-Roman ff 150.00 scf sf
6450 6675 m
gs 1 -1 sc (pluginReplaceWord) col0 sh gr
/Times-Roman ff 150.00 scf sf
6450 6870 m
gs 1 -1 sc (pluginDeleteCharacter) col0 sh gr
/Times-Roman ff 150.00 scf sf
6450 7065 m
gs 1 -1 sc (pluginStationaryDeleteCharacter) col0 sh gr
/Times-Roman ff 150.00 scf sf
6450 7260 m
gs 1 -1 sc (pluginDeleteSlab) col0 sh gr
/Times-Roman ff 150.00 scf sf
6450 7455 m
gs 1 -1 sc (pluginCreateFollowingWord) col0 sh gr
/Times-Roman ff 150.00 scf sf
6450 7650 m
gs 1 -1 sc (pluginInsertCharacter) col0 sh gr
/Times-Roman ff 150.00 scf sf
6450 7845 m
gs 1 -1 sc (pluginInsertImage) col0 sh gr
/Times-Roman ff 150.00 scf sf
6450 8040 m
gs 1 -1 sc (pluginInsertLogicalSlab) col0 sh gr
/Times-Roman ff 150.00 scf sf
6450 8235 m
gs 1 -1 sc (pluginInsertSlab) col0 sh gr
/Times-Roman ff 150.00 scf sf
6600 6450 m
gs 1 -1 sc (WPDocument methods) col0 sh gr
% Polyline
n 6750 9750 m 8400 9750 l 8400 11400 l 6750 11400 l cp gs col0 s gr 
/Times-Roman ff 150.00 scf sf
6825 9450 m
gs 1 -1 sc (C plugin's functions) col0 sh gr
/Times-Roman ff 150.00 scf sf
6825 9675 m
gs 1 -1 sc (WPPluginIOVTable) col0 sh gr
/Times-Roman ff 150.00 scf sf
6825 9900 m
gs 1 -1 sc (xxx_getMimeType) col0 sh gr
/Times-Roman ff 150.00 scf sf
6825 10095 m
gs 1 -1 sc (xxx_getFileExtensions) col0 sh gr
/Times-Roman ff 150.00 scf sf
6825 10290 m
gs 1 -1 sc (xxx_startLoad) col0 sh gr
/Times-Roman ff 150.00 scf sf
6825 10485 m
gs 1 -1 sc (xxx_processLoadChunk) col0 sh gr
/Times-Roman ff 150.00 scf sf
6825 10680 m
gs 1 -1 sc (xxx_endLoad) col0 sh gr
/Times-Roman ff 150.00 scf sf
6825 10875 m
gs 1 -1 sc (xxx_startSave) col0 sh gr
/Times-Roman ff 150.00 scf sf
6825 11070 m
gs 1 -1 sc (xxx_processSaveSlab) col0 sh gr
/Times-Roman ff 150.00 scf sf
6825 11265 m
gs 1 -1 sc (xxx_endSave) col0 sh gr
% Polyline
n 6750 12000 m 8850 12000 l 8850 13650 l 6750 13650 l cp gs col0 s gr 
/Times-Roman ff 150.00 scf sf
6825 12150 m
gs 1 -1 sc (xxx_replaceWord) col0 sh gr
/Times-Roman ff 150.00 scf sf
6825 12345 m
gs 1 -1 sc (xxx_deleteCharacter) col0 sh gr
/Times-Roman ff 150.00 scf sf
6825 12540 m
gs 1 -1 sc (xxx_stationaryDeleteCharacter) col0 sh gr
/Times-Roman ff 150.00 scf sf
6825 12735 m
gs 1 -1 sc (xxx_deleteSlab) col0 sh gr
/Times-Roman ff 150.00 scf sf
6825 12930 m
gs 1 -1 sc (xxx_insertSlab) col0 sh gr
/Times-Roman ff 150.00 scf sf
6825 13125 m
gs 1 -1 sc (xxx_createFollowingWord) col0 sh gr
/Times-Roman ff 150.00 scf sf
6825 13320 m
gs 1 -1 sc (xxx_insertCharacter) col0 sh gr
/Times-Roman ff 150.00 scf sf
6825 13515 m
gs 1 -1 sc (xxx_insertImage) col0 sh gr
/Times-Roman ff 150.00 scf sf
6825 11925 m
gs 1 -1 sc (WPPluginEditVTable) col0 sh gr
/Times-Roman ff 150.00 scf sf
2100 10320 m
gs 1 -1 sc (getFileExtensions) col0 sh gr
/Times-Roman ff 150.00 scf sf
2100 10125 m
gs 1 -1 sc (getMimeType) col0 sh gr
/Times-Roman ff 150.00 scf sf
2100 10515 m
gs 1 -1 sc (loadDocument) col0 sh gr
/Times-Roman ff 150.00 scf sf
2100 10710 m
gs 1 -1 sc (saveDocument) col0 sh gr
% Polyline
n 2025 9975 m 3300 9975 l 3300 10725 l 2025 10725 l cp gs col0 s gr 
% Polyline
n 1950 10950 m 3675 10950 l 3675 12525 l 1950 12525 l cp gs col0 s gr 
/Times-Roman ff 150.00 scf sf
2025 11100 m
gs 1 -1 sc (replaceWord) col0 sh gr
/Times-Roman ff 150.00 scf sf
2025 11295 m
gs 1 -1 sc (deleteCharacter) col0 sh gr
/Times-Roman ff 150.00 scf sf
2025 11490 m
gs 1 -1 sc (stationaryDeleteCharacter) col0 sh gr
/Times-Roman ff 150.00 scf sf
2025 11685 m
gs 1 -1 sc (deleteSlab) col0 sh gr
/Times-Roman ff 150.00 scf sf
2025 11880 m
gs 1 -1 sc (createFollowingWord) col0 sh gr
/Times-Roman ff 150.00 scf sf
2025 12075 m
gs 1 -1 sc (insertCharacter) col0 sh gr
/Times-Roman ff 150.00 scf sf
2025 12270 m
gs 1 -1 sc (insertImage) col0 sh gr
/Times-Roman ff 150.00 scf sf
2025 12465 m
gs 1 -1 sc (insertSlab) col0 sh gr
% Polyline
n 11400 4275 m 12900 4275 l 12900 5250 l 11400 5250 l cp gs col0 s gr 
/Times-Roman ff 150.00 scf sf
11475 4425 m
gs 1 -1 sc (replaceWord) col0 sh gr
/Times-Roman ff 150.00 scf sf
11475 4620 m
gs 1 -1 sc (deleteCharacter) col0 sh gr
/Times-Roman ff 150.00 scf sf
11475 4815 m
gs 1 -1 sc (createFollowingWord) col0 sh gr
/Times-Roman ff 150.00 scf sf
11475 5010 m
gs 1 -1 sc (insertCharacter) col0 sh gr
/Times-Roman ff 150.00 scf sf
11475 5205 m
gs 1 -1 sc (insertImage) col0 sh gr
/Times-Roman ff 150.00 scf sf
11475 4200 m
gs 1 -1 sc (C++ plugin's methods) col0 sh gr
% Polyline
15.000 slw
n 10305 4275 m 10200 4275 10200 4695 105 arcto 4 {pop} repeat
  10200 4800 10845 4800 105 arcto 4 {pop} repeat
  10950 4800 10950 4380 105 arcto 4 {pop} repeat
  10950 4275 10305 4275 105 arcto 4 {pop} repeat
 cp gs col0 s gr 
/Times-Roman ff 150.00 scf sf
10275 4500 m
gs 1 -1 sc (C to C++) col0 sh gr
/Times-Roman ff 150.00 scf sf
10275 4695 m
gs 1 -1 sc (wrappers) col0 sh gr
% Polyline
7.500 slw
n 11325 1950 m 12675 1950 l 12675 3600 l 11325 3600 l cp gs col0 s gr 
/Times-Roman ff 150.00 scf sf
11400 2100 m
gs 1 -1 sc (getMimeType) col0 sh gr
/Times-Roman ff 150.00 scf sf
11400 2295 m
gs 1 -1 sc (getFileExtensions) col0 sh gr
/Times-Roman ff 150.00 scf sf
11400 2490 m
gs 1 -1 sc (startLoad) col0 sh gr
/Times-Roman ff 150.00 scf sf
11400 2685 m
gs 1 -1 sc (processLoadChunk) col0 sh gr
/Times-Roman ff 150.00 scf sf
11400 2880 m
gs 1 -1 sc (endLoad) col0 sh gr
/Times-Roman ff 150.00 scf sf
11400 3075 m
gs 1 -1 sc (startSave) col0 sh gr
/Times-Roman ff 150.00 scf sf
11400 3270 m
gs 1 -1 sc (processSaveSlab) col0 sh gr
/Times-Roman ff 150.00 scf sf
11400 3465 m
gs 1 -1 sc (endSave) col0 sh gr
/Times-Roman ff 150.00 scf sf
11325 1800 m
gs 1 -1 sc (C++ plugin's methods) col0 sh gr
% Polyline
15.000 slw
n 9855 2325 m 9750 2325 9750 2745 105 arcto 4 {pop} repeat
  9750 2850 10395 2850 105 arcto 4 {pop} repeat
  10500 2850 10500 2430 105 arcto 4 {pop} repeat
  10500 2325 9855 2325 105 arcto 4 {pop} repeat
 cp gs col0 s gr 
/Times-Roman ff 150.00 scf sf
9825 2550 m
gs 1 -1 sc (C to C++) col0 sh gr
/Times-Roman ff 150.00 scf sf
9825 2745 m
gs 1 -1 sc (wrappers) col0 sh gr
% Polyline
30.000 slw
n 10380 6975 m 10275 6975 10275 7320 105 arcto 4 {pop} repeat
  10275 7425 10995 7425 105 arcto 4 {pop} repeat
  11100 7425 11100 7080 105 arcto 4 {pop} repeat
  11100 6975 10380 6975 105 arcto 4 {pop} repeat
 cp gs col0 s gr 
/Times-Roman ff 150.00 scf sf
10425 7275 m
gs 1 -1 sc (Slab Tree) col0 sh gr
% Polyline
n 5580 6825 m 5475 6825 5475 7095 105 arcto 4 {pop} repeat
  5475 7200 5895 7200 105 arcto 4 {pop} repeat
  6000 7200 6000 6930 105 arcto 4 {pop} repeat
  6000 6825 5580 6825 105 arcto 4 {pop} repeat
 cp gs col0 s gr 
/Times-Roman ff 150.00 scf sf
5550 7050 m
gs 1 -1 sc (bridge) col0 sh gr
% Polyline
7.500 slw
n 1875 3225 m 3600 3225 l 3600 4800 l 1875 4800 l cp gs col0 s gr 
/Times-Roman ff 150.00 scf sf
1950 3375 m
gs 1 -1 sc (replaceWord) col0 sh gr
/Times-Roman ff 150.00 scf sf
1950 3570 m
gs 1 -1 sc (deleteCharacter) col0 sh gr
/Times-Roman ff 150.00 scf sf
1950 3765 m
gs 1 -1 sc (stationaryDeleteCharacter) col0 sh gr
/Times-Roman ff 150.00 scf sf
1950 3960 m
gs 1 -1 sc (deleteSlab) col0 sh gr
/Times-Roman ff 150.00 scf sf
1950 4155 m
gs 1 -1 sc (createFollowingWord) col0 sh gr
/Times-Roman ff 150.00 scf sf
1950 4350 m
gs 1 -1 sc (insertCharacter) col0 sh gr
/Times-Roman ff 150.00 scf sf
1950 4545 m
gs 1 -1 sc (insertImage) col0 sh gr
/Times-Roman ff 150.00 scf sf
1950 4740 m
gs 1 -1 sc (insertSlab) col0 sh gr
/Times-Roman ff 150.00 scf sf
2025 2595 m
gs 1 -1 sc (getFileExtensions) col0 sh gr
/Times-Roman ff 150.00 scf sf
2025 2400 m
gs 1 -1 sc (getMimeType) col0 sh gr
/Times-Roman ff 150.00 scf sf
2025 2790 m
gs 1 -1 sc (loadDocument) col0 sh gr
/Times-Roman ff 150.00 scf sf
2025 2985 m
gs 1 -1 sc (saveDocument) col0 sh gr
% Polyline
n 1950 2250 m 3225 2250 l 3225 3075 l 1950 3075 l cp gs col0 s gr 
% Polyline
75.000 slw
gs  clippath
6306 2490 m 6546 2550 l 6306 2610 l 6690 2610 l 6690 2490 l cp
clip
n 5400 2550 m 6600 2550 l gs col0 s gr gr

% arrowhead
15.000 slw
n 6306 2490 m 6546 2550 l 6306 2610 l 6306 2550 l 6306 2490 l  cp gs col7 1.00 shd ef gr  col0 s
% Polyline
75.000 slw
gs  clippath
6306 4365 m 6546 4425 l 6306 4485 l 6690 4485 l 6690 4365 l cp
clip
n 5475 4425 m 6600 4425 l gs col0 s gr gr

% arrowhead
15.000 slw
n 6306 4365 m 6546 4425 l 6306 4485 l 6306 4425 l 6306 4365 l  cp gs col7 1.00 shd ef gr  col0 s
% Polyline
75.000 slw
gs  clippath
11031 2490 m 11271 2550 l 11031 2610 l 11415 2610 l 11415 2490 l cp
clip
n 10500 2550 m 11325 2550 l gs col0 s gr gr

% arrowhead
15.000 slw
n 11031 2490 m 11271 2550 l 11031 2610 l 11031 2550 l 11031 2490 l  cp gs col7 1.00 shd ef gr  col0 s
% Polyline
75.000 slw
gs  clippath
9456 2490 m 9696 2550 l 9456 2610 l 9840 2610 l 9840 2490 l cp
clip
n 8925 2550 m 9750 2550 l gs col0 s gr gr

% arrowhead
15.000 slw
n 9456 2490 m 9696 2550 l 9456 2610 l 9456 2550 l 9456 2490 l  cp gs col7 1.00 shd ef gr  col0 s
% Polyline
75.000 slw
gs  clippath
9906 4440 m 10146 4500 l 9906 4560 l 10290 4560 l 10290 4440 l cp
clip
n 10200 4500 m 9675 4500 l gs col0 s gr gr

% arrowhead
15.000 slw
n 9906 4440 m 10146 4500 l 9906 4560 l 9906 4500 l 9906 4440 l  cp gs col7 1.00 shd ef gr  col0 s
% Polyline
75.000 slw
gs  clippath
11106 4440 m 11346 4500 l 11106 4560 l 11490 4560 l 11490 4440 l cp
clip
n 10950 4500 m 11400 4500 l gs col0 s gr gr

% arrowhead
15.000 slw
n 11106 4440 m 11346 4500 l 11106 4560 l 11106 4500 l 11106 4440 l  cp gs col7 1.00 shd ef gr  col0 s
% Polyline
75.000 slw
gs  clippath
8385 6231 m 8325 6471 l 8265 6231 l 8265 6615 l 8385 6615 l cp
clip
n 11925 5250 m 11550 5475 l 8325 6150 l 8325 6525 l gs col0 s gr gr

% arrowhead
15.000 slw
n 8385 6231 m 8325 6471 l 8265 6231 l 8325 6231 l 8385 6231 l  cp gs col7 1.00 shd ef gr  col0 s
% Polyline
75.000 slw
gs  clippath
1656 11415 m 1896 11475 l 1656 11535 l 2040 11535 l 2040 11415 l cp
clip
n 5700 7200 m 5400 7950 l 1350 9375 l 1350 11475 l 1950 11475 l gs col0 s gr gr

% arrowhead
15.000 slw
n 1656 11415 m 1896 11475 l 1656 11535 l 1656 11475 l 1656 11415 l  cp gs col7 1.00 shd ef gr  col0 s
% Polyline
75.000 slw
gs  clippath
1581 4065 m 1821 4125 l 1581 4185 l 1965 4185 l 1965 4065 l cp
clip
n 5700 6825 m 5400 6300 l 1275 5100 l 1275 4125 l 1875 4125 l gs col0 s gr gr

% arrowhead
15.000 slw
n 1581 4065 m 1821 4125 l 1581 4185 l 1581 4125 l 1581 4065 l  cp gs col7 1.00 shd ef gr  col0 s
% Polyline
75.000 slw
gs  clippath
8265 8619 m 8325 8379 l 8385 8619 l 8385 8235 l 8265 8235 l cp
clip
n 8850 12150 m 9825 12150 l 9825 8850 l 8325 8625 l 8325 8325 l gs col0 s gr gr

% arrowhead
15.000 slw
n 8265 8619 m 8325 8379 l 8385 8619 l 8325 8619 l 8265 8619 l  cp gs col7 1.00 shd ef gr  col0 s
% Polyline
75.000 slw
gs  clippath
9981 7140 m 10221 7200 l 9981 7260 l 10365 7260 l 10365 7140 l cp
clip
n 8550 7200 m 10275 7200 l gs col0 s gr gr

% arrowhead
15.000 slw
n 9981 7140 m 10221 7200 l 9981 7260 l 9981 7200 l 9981 7140 l  cp gs col7 1.00 shd ef gr  col0 s
% Polyline
75.000 slw
gs  clippath
2856 6915 m 3096 6975 l 2856 7035 l 3240 7035 l 3240 6915 l cp
clip
n 2250 6975 m 3150 6975 l gs col0 s gr gr

% arrowhead
15.000 slw
n 2856 6915 m 3096 6975 l 2856 7035 l 2856 6975 l 2856 6915 l  cp gs col7 1.00 shd ef gr  col0 s
% Polyline
75.000 slw
gs  clippath
5181 6990 m 5421 7050 l 5181 7110 l 5565 7110 l 5565 6990 l cp
clip
n 4875 7050 m 5475 7050 l gs col0 s gr gr

% arrowhead
15.000 slw
n 5181 6990 m 5421 7050 l 5181 7110 l 5181 7050 l 5181 6990 l  cp gs col7 1.00 shd ef gr  col0 s
% Polyline
30.000 slw
 [120] 0 sd
n 3030 6150 m 2925 6150 2925 8445 105 arcto 4 {pop} repeat
  2925 8550 9570 8550 105 arcto 4 {pop} repeat
  9675 8550 9675 6255 105 arcto 4 {pop} repeat
  9675 6150 3030 6150 105 arcto 4 {pop} repeat
 cp gs col0 s gr  [] 0 sd
% Polyline
 [120] 0 sd
n 6630 9225 m 6525 9225 6525 13695 105 arcto 4 {pop} repeat
  6525 13800 9195 13800 105 arcto 4 {pop} repeat
  9300 13800 9300 9330 105 arcto 4 {pop} repeat
  9300 9225 6630 9225 105 arcto 4 {pop} repeat
 cp gs col0 s gr  [] 0 sd
% Polyline
75.000 slw
gs  clippath
6456 10215 m 6696 10275 l 6456 10335 l 6840 10335 l 6840 10215 l cp
clip
n 5475 10275 m 6750 10275 l gs col0 s gr gr

% arrowhead
15.000 slw
n 6456 10215 m 6696 10275 l 6456 10335 l 6456 10275 l 6456 10215 l  cp gs col7 1.00 shd ef gr  col0 s
% Polyline
75.000 slw
gs  clippath
6456 12165 m 6696 12225 l 6456 12285 l 6840 12285 l 6840 12165 l cp
clip
n 5550 12225 m 6750 12225 l gs col0 s gr gr

% arrowhead
15.000 slw
n 6456 12165 m 6696 12225 l 6456 12285 l 6456 12225 l 6456 12165 l  cp gs col7 1.00 shd ef gr  col0 s
% Polyline
75.000 slw
n 3300 10275 m 4050 10275 l gs col0 s gr 
% Polyline
30.000 slw
 [120] 0 sd
n 1905 9825 m 1800 9825 1800 12645 105 arcto 4 {pop} repeat
  1800 12750 5520 12750 105 arcto 4 {pop} repeat
  5625 12750 5625 9930 105 arcto 4 {pop} repeat
  5625 9825 1905 9825 105 arcto 4 {pop} repeat
 cp gs col0 s gr  [] 0 sd
% Polyline
75.000 slw
n 3675 12150 m 3975 12150 l gs col0 s gr 
% Polyline
30.000 slw
 [120] 0 sd
n 6555 1425 m 6450 1425 6450 5595 105 arcto 4 {pop} repeat
  6450 5700 12945 5700 105 arcto 4 {pop} repeat
  13050 5700 13050 1530 105 arcto 4 {pop} repeat
  13050 1425 6555 1425 105 arcto 4 {pop} repeat
 cp gs col0 s gr  [] 0 sd
% Polyline
75.000 slw
n 3225 2550 m 3975 2550 l gs col0 s gr 
% Polyline
30.000 slw
 [120] 0 sd
n 1830 2100 m 1725 2100 1725 4920 105 arcto 4 {pop} repeat
  1725 5025 5445 5025 105 arcto 4 {pop} repeat
  5550 5025 5550 2205 105 arcto 4 {pop} repeat
  5550 2100 1830 2100 105 arcto 4 {pop} repeat
 cp gs col0 s gr  [] 0 sd
% Polyline
75.000 slw
n 3600 4425 m 3900 4425 l gs col0 s gr 
/Times-Roman ff 150.00 scf sf
8325 1350 m
gs 1 -1 sc (C++plugin.so) col0 sh gr
/Times-Roman ff 150.00 scf sf
5475 6075 m
gs 1 -1 sc (WPDocument) col0 sh gr
/Times-Roman ff 150.00 scf sf
7050 9150 m
gs 1 -1 sc (Cplugin.so) col0 sh gr
/Times-Roman ff 150.00 scf sf
3000 9675 m
gs 1 -1 sc (WpIOPluginBridge) col0 sh gr
/Times-Roman ff 150.00 scf sf
4125 10350 m
gs 1 -1 sc (WPPluginIOVTable) col0 sh gr
/Times-Roman ff 150.00 scf sf
4050 12225 m
gs 1 -1 sc (WPPluginEditVTAble) col0 sh gr
/Times-Roman ff 150.00 scf sf
2925 1950 m
gs 1 -1 sc (WpIOPluginBridge) col0 sh gr
/Times-Roman ff 150.00 scf sf
4050 2625 m
gs 1 -1 sc (WPPluginIOVTable) col0 sh gr
% Polyline
7.500 slw
n 6600 1875 m 8925 1875 l 8925 3525 l 6600 3525 l cp gs col0 s gr 
$F2psEnd
rs
showpage
